<svg width="439" height="437" viewBox="0 0 439 437" fill="none" xmlns="http://www.w3.org/2000/svg">
<g opacity="0.09">
<path fill-rule="evenodd" clip-rule="evenodd" d="M236.744 37.2048V87.4112H295.321C325.784 87.4112 350.796 112.337 350.796 142.713V201.411H401.145V110.284C401.145 70.3479 368.274 37.2048 327.893 37.2048H236.744Z" fill="#465998"/>
<path fill-rule="evenodd" clip-rule="evenodd" d="M143.2 349.593C112.736 349.593 87.7245 324.668 87.7245 294.292V235.93H37.3447V326.72C37.3447 366.657 70.5839 399.8 110.659 399.8H202.12V349.593H143.2Z" fill="#465998"/>
<path fill-rule="evenodd" clip-rule="evenodd" d="M236.744 399.8V437H350.129C398.742 437 438.492 397.405 438.492 348.915V235.93H401.145H350.796V294.292C350.796 324.668 325.784 349.593 295.321 349.593H236.744V399.8Z" fill="#465998"/>
<path fill-rule="evenodd" clip-rule="evenodd" d="M165.826 126.682H272.687C293.936 126.682 311.401 144.099 311.401 165.243V271.766C311.401 292.953 293.936 310.358 272.687 310.358H165.826C144.596 310.358 127.082 292.953 127.082 271.766V165.243C127.082 144.099 144.596 126.682 165.826 126.682Z" fill="#89C42C"/>
<path fill-rule="evenodd" clip-rule="evenodd" d="M37.3474 201.406H87.7271V142.707C87.7271 112.332 112.739 87.4067 143.203 87.4067H202.122V37.2003V0H88.3904C39.7496 0 0 39.6255 0 88.0847V201.406H37.3474Z" fill="#465998"/>
</g>
</svg>
