<svg width="153" height="81" viewBox="0 0 153 81" fill="none" xmlns="http://www.w3.org/2000/svg">
<path fill-rule="evenodd" clip-rule="evenodd" d="M78.6438 5.32959V12.5217H87.035C91.3989 12.5217 94.9818 16.0923 94.9818 20.4436V28.8522H102.194V15.7982C102.194 10.0773 97.4856 5.32959 91.701 5.32959H78.6438Z" fill="white"/>
<path fill-rule="evenodd" clip-rule="evenodd" d="M65.2437 50.0794C60.8797 50.0794 57.2968 46.5088 57.2968 42.1574V33.7971H50.0798V46.8028C50.0798 52.5238 54.8414 57.2714 60.5821 57.2714H73.6839V50.0794H65.2437Z" fill="white"/>
<path fill-rule="evenodd" clip-rule="evenodd" d="M78.6438 57.2714V62.6004H94.8863C101.85 62.6004 107.544 56.9284 107.544 49.9822V33.7971H102.194H94.9818V42.1574C94.9818 46.5088 91.3989 50.0794 87.035 50.0794H78.6438V57.2714Z" fill="white"/>
<path fill-rule="evenodd" clip-rule="evenodd" d="M68.4849 18.1472H83.7928C86.8366 18.1472 89.3385 20.6423 89.3385 23.6711V38.9306C89.3385 41.9656 86.8366 44.459 83.7928 44.459H68.4849C65.4437 44.459 62.9348 41.9656 62.9348 38.9306V23.6711C62.9348 20.6423 65.4437 18.1472 68.4849 18.1472Z" fill="white"/>
<path fill-rule="evenodd" clip-rule="evenodd" d="M50.0798 28.8515H57.2967V20.4429C57.2967 16.0916 60.8797 12.521 65.2436 12.521H73.6838V5.32896V0H57.3917C50.4239 0 44.7297 5.67637 44.7297 12.6182V28.8515H50.0798Z" fill="white"/>
<path d="M0 70.5369H2.17027V75.4952L6.24239 70.5369H8.83906L4.69724 75.5792L8.87955 80.8562H6.1083L2.17027 75.7253V80.8562H0V70.5369ZM9.60051 73.2676H13.6918C15.7736 73.2676 16.8131 74.2138 16.8131 76.1062V80.8562H11.438C10.6858 80.8562 10.106 80.6669 9.70116 80.2885C9.2963 79.91 9.09523 79.3686 9.09523 78.6693C9.09523 77.8044 9.33233 77.1865 9.80664 76.815C10.2785 76.4439 11.0498 76.2571 12.1205 76.2571H14.7579V76.0725C14.7579 75.6031 14.6213 75.2797 14.3459 75.1001C14.0728 74.9228 13.6033 74.8343 12.9423 74.8343H9.60051V73.2676ZM12.2596 79.3327H14.7579V77.7661H12.4007C11.9648 77.7661 11.6512 77.8259 11.4572 77.9434C11.263 78.063 11.1648 78.286 11.1648 78.6118C11.1648 78.9111 11.2463 79.1052 11.4116 79.1962C11.5744 79.2872 11.8571 79.3327 12.2596 79.3327ZM18.3557 79.2249L22.8399 74.9061H18.3557V73.2676H25.4558V74.9132L20.9715 79.2322H25.4558V80.8562H18.3557V79.2249ZM32.8455 80.8562H27.166V70.5369H32.4743C33.1186 70.5369 33.6526 70.5729 34.0743 70.6447C34.496 70.719 34.8409 70.8411 35.1138 71.0135C35.89 71.5046 36.278 72.2424 36.278 73.2245C36.278 73.8042 36.1535 74.2928 35.9068 74.6928C35.6576 75.0929 35.2696 75.4282 34.7403 75.699C35.7845 76.1397 36.3069 76.9182 36.3069 78.0368C36.3069 78.5184 36.2373 78.9375 36.096 79.2945C35.9546 79.6536 35.7438 79.9459 35.4564 80.1759C35.1714 80.4058 34.8097 80.5759 34.3738 80.6884C33.9355 80.801 33.4252 80.8562 32.8455 80.8562ZM32.5413 79.0309C33.0227 79.0309 33.3797 78.9352 33.6145 78.7435C33.8467 78.5518 33.9641 78.2453 33.9641 77.8236C33.9641 77.3972 33.8492 77.0882 33.6168 76.8942C33.3868 76.7001 33.0275 76.6021 32.5413 76.6021H29.3362V79.0309H32.5413ZM29.3362 72.3909V74.7767H32.5174C32.9988 74.7767 33.3557 74.6808 33.588 74.4917C33.8204 74.3024 33.9355 74.0006 33.9355 73.5837C33.9355 73.167 33.818 72.8651 33.5833 72.6759C33.3509 72.4868 32.9941 72.3909 32.5174 72.3909H29.3362ZM39.9117 80.8562H37.8134V73.2772H39.9117V80.8562ZM39.9117 72.4195H37.8134V70.5369H39.9117V72.4195ZM49.1701 77.0787C49.1701 77.6558 49.0814 78.1829 48.9041 78.6596C48.7245 79.1386 48.4611 79.5532 48.1112 79.9029C47.7591 80.255 47.3327 80.5256 46.8274 80.7148C46.3219 80.904 45.7662 80.9999 45.1626 80.9999C44.5469 80.9999 43.9888 80.904 43.4929 80.7148C42.9971 80.5256 42.573 80.2597 42.2234 79.9147C41.8737 79.5698 41.603 79.1531 41.4163 78.6644C41.2293 78.1732 41.136 77.6463 41.136 77.0787C41.136 76.4893 41.2317 75.9527 41.421 75.4713C41.6103 74.9876 41.8808 74.573 42.233 74.2233C42.5875 73.876 43.0092 73.6126 43.5001 73.4328C43.7588 73.3394 44.02 73.27 44.2906 73.2222C44.5589 73.1766 44.8511 73.1525 45.1626 73.1525C45.7757 73.1525 46.3292 73.2461 46.8226 73.4304C47.316 73.6149 47.7352 73.8807 48.0825 74.2233C48.4274 74.5682 48.6958 74.9803 48.8849 75.4594C49.0742 75.9408 49.1701 76.4799 49.1701 77.0787ZM43.2343 77.0835C43.2343 77.8141 43.4043 78.3794 43.7469 78.7771C44.0871 79.177 44.5565 79.3758 45.1505 79.3758C45.5386 79.3758 45.8764 79.2872 46.1661 79.1076C46.4561 78.9303 46.6788 78.6693 46.8368 78.3242C46.9926 77.9792 47.0717 77.5673 47.0717 77.0835C47.0717 76.3576 46.9016 75.7924 46.5639 75.3922C46.2237 74.9923 45.7519 74.7911 45.1505 74.7911C44.5614 74.7911 44.0942 74.9947 43.7492 75.3995C43.4068 75.8044 43.2343 76.3673 43.2343 77.0835ZM59.3144 72.3764H53.956C53.3859 72.3764 52.9643 72.4868 52.6936 72.7048C52.4229 72.9227 52.2863 73.2653 52.2863 73.7371C52.2863 74.4868 52.7414 74.8629 53.6542 74.8629H56.5285C57.3094 74.8629 57.937 74.9563 58.4163 75.1432C58.8928 75.3301 59.2449 75.6367 59.475 76.0678C59.7024 76.4966 59.8176 77.0643 59.8176 77.7686C59.8176 78.4777 59.6882 79.0621 59.4269 79.5195C59.1682 79.977 58.7706 80.3124 58.2317 80.5305C57.6927 80.7484 57.0197 80.8562 56.21 80.8562H50.43V79.0166H55.8627C56.4567 79.0166 56.8856 78.9303 57.1491 78.7602C57.4149 78.5902 57.5466 78.286 57.5466 77.8524C57.5466 77.4068 57.4293 77.0979 57.1922 76.9229C56.9551 76.7481 56.562 76.6594 56.0088 76.6594H53.4481C52.2696 76.6594 51.4024 76.4247 50.8466 75.9553C50.2935 75.4858 50.0156 74.7337 50.0156 73.6988C50.0156 73.1431 50.0874 72.6687 50.2335 72.2735C50.3772 71.8782 50.6025 71.5501 50.9066 71.2867C51.2108 71.0255 51.5821 70.8362 52.023 70.719C52.2337 70.6638 52.478 70.6183 52.7559 70.5848C53.0338 70.5537 53.3283 70.5369 53.6375 70.5369H59.3144V72.3764ZM64.613 80.8562C63.3577 80.8562 62.409 80.5375 61.7697 79.8981C61.1276 79.2584 60.8067 78.3146 60.8067 77.0691C60.8067 75.8234 61.1276 74.8774 61.7697 74.233C62.409 73.5887 63.3577 73.2676 64.613 73.2676H67.5328V74.8486H64.8883C64.4429 74.8486 64.0906 74.8845 63.8295 74.9563C63.5709 75.0283 63.372 75.172 63.2379 75.3875C63.171 75.4977 63.1181 75.6294 63.08 75.7828C63.0392 75.9361 63.02 76.1086 63.02 76.3002H67.5328V77.8812H63.02C63.02 78.0752 63.0369 78.2476 63.0727 78.3961C63.1087 78.5447 63.1613 78.6764 63.2309 78.7866C63.3577 78.983 63.5422 79.1123 63.7841 79.177C64.0285 79.2417 64.3901 79.2753 64.8741 79.2753H67.5328V80.8562H64.613ZM68.8168 73.2676H72.1799C72.7094 73.2676 73.1285 73.3299 73.44 73.4543C73.7513 73.579 73.974 73.7803 74.1058 74.0605C74.24 74.3384 74.3071 74.7145 74.3071 75.1887V76.4559H72.3956V75.4737C72.3956 75.1503 72.3356 74.942 72.2136 74.8533C72.0914 74.7646 71.859 74.7192 71.5164 74.7192H70.8146V80.8562H68.8168V73.2676ZM74.7264 73.2676H76.9708L79.0691 78.6572L81.2943 73.2676H83.4479L80.087 80.8562H77.9338L74.7264 73.2676ZM86.4444 80.8562H84.3461V73.2772H86.4444V80.8562ZM86.4444 72.4195H84.3461V70.5369H86.4444V72.4195ZM88.0614 79.2753H92.2724C92.6319 79.2753 92.9 79.2177 93.0798 79.1052C93.257 78.9926 93.3456 78.8058 93.3456 78.5423C93.3456 78.0439 92.9888 77.7949 92.2724 77.7949H90.5454C89.8939 77.7949 89.3837 77.7373 89.0147 77.6224C88.6459 77.5075 88.3728 77.2943 88.1931 76.9828C88.016 76.6715 87.9273 76.2258 87.9273 75.6438C87.9273 75.1145 88.0231 74.6689 88.2148 74.312C88.4063 73.9528 88.7011 73.6891 89.0987 73.5216C89.4962 73.3514 89.9969 73.2676 90.6006 73.2676H94.9025V74.8486H91.3647C91.0294 74.8486 90.7634 74.8629 90.5718 74.8916C90.3802 74.9205 90.2341 74.9851 90.1335 75.0857C90.0327 75.1887 89.9826 75.3419 89.9826 75.5457C89.9826 76.0007 90.2988 76.2283 90.9287 76.2283H92.7396C93.5635 76.2283 94.1935 76.4223 94.6297 76.8103C95.0679 77.1984 95.2859 77.7565 95.2859 78.4871C95.2859 79.1915 95.0895 79.7638 94.699 80.1999C94.3086 80.6382 93.8151 80.8562 93.2162 80.8562H88.0614V79.2753ZM96.2058 76.0702H101.042V77.8812H96.2058V76.0702ZM105.442 70.5369H107.737L112.137 80.8562H109.723L108.774 78.3986H104.29L103.37 80.8562H101.068L105.442 70.5369ZM106.501 72.592L104.992 76.559H108.065L106.501 72.592ZM112.545 79.2753H116.756C117.115 79.2753 117.383 79.2177 117.563 79.1052C117.74 78.9926 117.829 78.8058 117.829 78.5423C117.829 78.0439 117.472 77.7949 116.756 77.7949H115.029C114.377 77.7949 113.867 77.7373 113.498 77.6224C113.129 77.5075 112.856 77.2943 112.676 76.9828C112.499 76.6715 112.41 76.2258 112.41 75.6438C112.41 75.1145 112.506 74.6689 112.698 74.312C112.89 73.9528 113.184 73.6891 113.582 73.5216C113.979 73.3514 114.48 73.2676 115.084 73.2676H119.386V74.8486H115.848C115.512 74.8486 115.247 74.8629 115.055 74.8916C114.863 74.9205 114.717 74.9851 114.617 75.0857C114.516 75.1887 114.466 75.3419 114.466 75.5457C114.466 76.0007 114.782 76.2283 115.412 76.2283H117.223C118.047 76.2283 118.677 76.4223 119.113 76.8103C119.551 77.1984 119.769 77.7565 119.769 78.4871C119.769 79.1915 119.573 79.7638 119.182 80.1999C118.792 80.6382 118.298 80.8562 117.699 80.8562H112.545V79.2753ZM120.452 73.2676H121.855V70.5369H123.853V73.2676H125.968V74.7767H123.853V77.8498C123.853 78.3888 123.944 78.7721 124.126 79.0021C124.311 79.2322 124.648 79.3471 125.147 79.3471H125.968V80.8562H124.143C123.417 80.8562 122.854 80.6501 122.454 80.2405C122.054 79.8309 121.855 79.2441 121.855 78.48V74.7767H120.452V73.2676ZM127.305 73.2676H131.396C133.478 73.2676 134.517 74.2138 134.517 76.1062V80.8562H129.142C128.39 80.8562 127.81 80.6669 127.405 80.2885C127 79.91 126.799 79.3686 126.799 78.6693C126.799 77.8044 127.037 77.1865 127.511 76.815C127.983 76.4439 128.754 76.2571 129.825 76.2571H132.462V76.0725C132.462 75.6031 132.325 75.2797 132.05 75.1001C131.777 74.9228 131.307 74.8343 130.646 74.8343H127.305V73.2676ZM129.964 79.3327H132.462V77.7661H130.105C129.669 77.7661 129.355 77.8259 129.161 77.9434C128.967 78.063 128.869 78.286 128.869 78.6118C128.869 78.9111 128.95 79.1052 129.116 79.1962C129.279 79.2872 129.561 79.3327 129.964 79.3327ZM136.276 73.2676H140.046C140.798 73.2676 141.404 73.3586 141.866 73.5406C142.326 73.7251 142.664 74.0174 142.88 74.4246C143.095 74.8294 143.203 75.3707 143.203 76.051V80.8562H141.205V76.2929C141.205 75.9312 141.174 75.6559 141.109 75.4666C141.047 75.275 140.92 75.1409 140.731 75.0569C140.542 74.9755 140.259 74.9347 139.881 74.9347H138.273V80.8562H136.276V73.2676ZM145.062 73.2676H149.153C151.235 73.2676 152.274 74.2138 152.274 76.1062V80.8562H146.899C146.147 80.8562 145.567 80.6669 145.162 80.2885C144.757 79.91 144.556 79.3686 144.556 78.6693C144.556 77.8044 144.794 77.1865 145.268 76.815C145.74 76.4439 146.511 76.2571 147.582 76.2571H150.219V76.0725C150.219 75.6031 150.082 75.2797 149.807 75.1001C149.534 74.9228 149.064 74.8343 148.403 74.8343H145.062V73.2676ZM147.721 79.3327H150.219V77.7661H147.862C147.426 77.7661 147.112 77.8259 146.918 77.9434C146.724 78.063 146.626 78.286 146.626 78.6118C146.626 78.9111 146.707 79.1052 146.873 79.1962C147.036 79.2872 147.318 79.3327 147.721 79.3327Z" fill="white"/>
</svg>
