<svg width="144" height="129" viewBox="0 0 144 129" fill="none" xmlns="http://www.w3.org/2000/svg">
<g filter="url(#filter0_d)">
<rect x="16" y="16" width="112" height="97" rx="7" fill="#EDEEF0"/>
<rect x="17.5" y="17.5" width="109" height="94" rx="5.5" stroke="white" stroke-width="3"/>
</g>
<path d="M77.2651 60.1495C76.7478 60.1923 76.277 60.4455 75.9401 60.8607C75.5812 61.3033 75.4164 61.8807 75.4866 62.4463L75.7269 64.3624L79.4336 60.6557C78.787 60.2725 78.0365 60.0857 77.2651 60.1495Z" fill="#89C42C"/>
<path d="M74.3814 68.2839L70.6738 71.9915C71.3214 72.3741 72.0727 72.5607 72.8431 72.4979C73.3595 72.4551 73.8304 72.2019 74.1683 71.7857C74.5262 71.3441 74.692 70.7657 74.6209 70.2002L74.3814 68.2839Z" fill="#89C42C"/>
<path d="M96.6127 63.1199L84.072 50.6921C86.9717 50.4927 88.9562 49.7486 89.9617 48.46C90.744 47.4591 90.6812 46.4691 90.6247 46.1075C90.4854 40.9938 78.4729 40.7334 76.0541 40.7334C75.3628 40.7334 74.7053 40.7507 74.0659 40.7753L71.5332 38.2653C71.3528 38.0867 71.1052 37.9838 70.8538 38.0021L48.9964 38.9129C48.5411 38.9311 48.1695 39.2845 48.1276 39.738L46.0038 62.5061C45.9783 62.7839 46.0812 63.0589 46.2835 63.2511L72.0324 87.7059C72.8948 88.5683 74.0278 89 75.1607 89C76.2936 89 77.4266 88.5683 78.29 87.7059L96.6155 69.3802C97.4515 68.5441 97.9114 67.4331 97.9114 66.2509C97.9114 65.0697 97.4515 63.9578 96.6127 63.1199ZM76.0541 42.5549C81.3481 42.5549 88.8041 43.685 88.8041 46.1978C88.8041 46.2725 88.8133 46.3462 88.8314 46.4191C88.8323 46.4228 88.9016 46.859 88.5263 47.3389C88.0628 47.9337 86.6539 48.9299 82.429 48.9299C82.3899 48.9299 82.3552 48.9472 82.317 48.9527L75.8645 42.5576C75.9292 42.5576 75.9885 42.5549 76.0541 42.5549ZM54.1967 49.8407C54.1967 47.3298 56.2395 45.2871 58.7503 45.2871C59.1491 45.2871 59.5299 45.3554 59.8987 45.452C59.3604 46.023 58.9616 46.5885 58.6684 47.1168C57.2002 47.1614 56.0181 48.3617 56.0181 49.8408C56.0181 51.3471 57.2439 52.5729 58.7503 52.5729C60.2566 52.5729 61.4824 51.3471 61.4824 49.8408C61.4824 48.9793 61.0735 48.2188 60.4487 47.7179C60.7284 47.2798 61.1026 46.8108 61.619 46.3336C62.639 47.1697 63.3039 48.4229 63.3039 49.8408C63.3039 52.3517 61.2611 54.3944 58.7503 54.3944C56.2395 54.3944 54.1967 52.3515 54.1967 49.8407ZM58.7503 58.0372C58.2476 58.0372 57.8396 57.6292 57.8396 57.1265C57.8396 56.6238 58.2476 56.2158 58.7503 56.2158C62.2656 56.2158 65.1253 53.3561 65.1253 49.8408C65.1253 49.3381 65.5333 48.9301 66.036 48.9301C66.5387 48.9301 66.9467 49.3381 66.9467 49.8408C66.9468 54.3597 63.2693 58.0372 58.7503 58.0372ZM83.073 59.5918L82.0412 60.6236C82.7014 61.5471 83.0621 62.6472 83.0621 63.8048C83.0621 65.272 82.491 66.6499 81.4537 67.6872C81.0986 68.0424 80.5221 68.0424 80.166 67.6872C79.8099 67.3311 79.8099 66.7546 80.166 66.3995C80.8591 65.7064 81.2406 64.7847 81.2406 63.8048C81.2406 63.1382 81.0512 62.5043 80.7197 61.9451L76.0122 66.6526L76.4275 69.974C76.5595 71.0305 76.2507 72.1088 75.5814 72.9339C74.9284 73.7381 74.0094 74.228 72.994 74.3136C72.8401 74.3264 72.6862 74.3327 72.5341 74.3327C71.3866 74.3327 70.28 73.9703 69.3548 73.31L68.5014 74.1634C68.3237 74.3411 68.0907 74.4303 67.8575 74.4303C67.6243 74.4303 67.3912 74.3411 67.2135 74.1634C66.8575 73.8073 66.8575 73.2318 67.2135 72.8757L68.0732 72.016C66.5495 69.873 66.7326 66.8804 68.6524 64.9606C69.0085 64.6046 69.5841 64.6046 69.9402 64.9606C70.2963 65.3158 70.2963 65.8923 69.9402 66.2484C68.7335 67.4551 68.5577 69.2956 69.3874 70.7018L74.0949 65.9943L73.6796 62.6729C73.5476 61.6173 73.8554 60.5391 74.5248 59.714C75.1777 58.9089 76.0967 58.4189 77.1131 58.3342C78.42 58.224 79.7013 58.5902 80.7505 59.3388L81.7851 58.3042C82.1412 57.9482 82.7167 57.9482 83.0728 58.3042C83.4289 58.6603 83.4291 59.2357 83.073 59.5918Z" fill="#89C42C"/>
<defs>
<filter id="filter0_d" x="0" y="0" width="144" height="129" filterUnits="userSpaceOnUse" color-interpolation-filters="sRGB">
<feFlood flood-opacity="0" result="BackgroundImageFix"/>
<feColorMatrix in="SourceAlpha" type="matrix" values="0 0 0 0 0 0 0 0 0 0 0 0 0 0 0 0 0 0 127 0"/>
<feOffset/>
<feGaussianBlur stdDeviation="8"/>
<feColorMatrix type="matrix" values="0 0 0 0 0 0 0 0 0 0 0 0 0 0 0 0 0 0 0.12 0"/>
<feBlend mode="normal" in2="BackgroundImageFix" result="effect1_dropShadow"/>
<feBlend mode="normal" in="SourceGraphic" in2="effect1_dropShadow" result="shape"/>
</filter>
</defs>
</svg>
